conditionId	conditionName	./Global/Field/TIFFReader
condition1	a	['filename', '/home/emad/Insync/blackhand.3@gmail.com/Google Drive/Bonn/Documents/Morpheus/PEtab_example/cell_motility_two_conditions/env_noise_0_900a.tif']
condition2	b	['filename', '/home/emad/Insync/blackhand.3@gmail.com/Google Drive/Bonn/Documents/Morpheus/PEtab_example/cell_motility_two_conditions/env_noise_0_900b.tif']
